{
  "name": "CompanyAgregates",
  "options": {
    "idInjection": false,
    "mysql": {
      "schema": "devScora",
      "table": "COMPANY_AGREGATES"
    },
    "relations": {
      "companyAgregatesIbfk1rel": {
        "model": "Company",
        "type": "belongsTo",
        "foreignKey": "companyId"
      },
      "companyAgregatesIbfk2rel": {
        "model": "Organization",
        "type": "belongsTo",
        "foreignKey": "organizationId"
      },
      "companyAgregatesIbfk3rel": {
        "model": "Campus",
        "type": "belongsTo",
        "foreignKey": "campusId"
      }
    }
  },
  "properties": {
    "companyAgregateId": {
      "type": "Number",
      "id": 1,
      "required": true,
      "length": null,
      "precision": 10,
      "scale": 0,
      "mysql": {
        "columnName": "company_agregate_id",
        "dataType": "int",
        "dataLength": null,
        "dataPrecision": 10,
        "dataScale": 0,
        "nullable": "N"
      }
    },
    "companyId": {
      "type": "Number",
      "required": false,
      "length": null,
      "precision": 10,
      "scale": 0,
      "mysql": {
        "columnName": "company_id",
        "dataType": "int",
        "dataLength": null,
        "dataPrecision": 10,
        "dataScale": 0,
        "nullable": "Y"
      }
    },
    "organizationId": {
      "type": "Number",
      "required": false,
      "length": null,
      "precision": 10,
      "scale": 0,
      "mysql": {
        "columnName": "organization_id",
        "dataType": "int",
        "dataLength": null,
        "dataPrecision": 10,
        "dataScale": 0,
        "nullable": "Y"
      }
    },
    "campusId": {
      "type": "Number",
      "required": false,
      "length": null,
      "precision": 10,
      "scale": 0,
      "mysql": {
        "columnName": "campus_id",
        "dataType": "int",
        "dataLength": null,
        "dataPrecision": 10,
        "dataScale": 0,
        "nullable": "Y"
      }
    },
    "noOfOffers": {
      "type": "Number",
      "required": false,
      "length": null,
      "precision": 10,
      "scale": 0,
      "mysql": {
        "columnName": "no_of_offers",
        "dataType": "int",
        "dataLength": null,
        "dataPrecision": 10,
        "dataScale": 0,
        "nullable": "Y"
      }
    },
    "totalOffers": {
      "type": "String",
      "required": false,
      "length": null,
      "precision": 18,
      "scale": 6,
      "mysql": {
        "columnName": "total_offers",
        "dataType": "decimal",
        "dataLength": null,
        "dataPrecision": 18,
        "dataScale": 6,
        "nullable": "Y"
      }
    },
    "minimumOffer": {
      "type": "String",
      "required": false,
      "length": null,
      "precision": 18,
      "scale": 6,
      "mysql": {
        "columnName": "minimum_offer",
        "dataType": "decimal",
        "dataLength": null,
        "dataPrecision": 18,
        "dataScale": 6,
        "nullable": "Y"
      }
    },
    "maximumOffer": {
      "type": "String",
      "required": false,
      "length": null,
      "precision": 18,
      "scale": 6,
      "mysql": {
        "columnName": "maximum_offer",
        "dataType": "decimal",
        "dataLength": null,
        "dataPrecision": 18,
        "dataScale": 6,
        "nullable": "Y"
      }
    },
    "calendarYear": {
      "type": "Number",
      "required": false,
      "length": null,
      "precision": 10,
      "scale": 0,
      "mysql": {
        "columnName": "calendar_year",
        "dataType": "int",
        "dataLength": null,
        "dataPrecision": 10,
        "dataScale": 0,
        "nullable": "Y"
      }
    }
  },
  "validations": [],
  "relations": {},
  "acls": [],
  "methods": {}
}
