{
    "name": "CompanyHiringAggregates",
    "options": {
      "idInjection": false,
      "mysql": {
        "schema": "devScora",
        "table": "COMPANY_HIRING_AGGREGATES"
      },
      "relations": {
        "companyHiringIbfk1rel": {
          "model": "Campus",
          "type": "belongsTo",
          "foreignKey": "campusId"
        },
        "companyHiringIbfk2rel": {
          "model": "Organization",
          "type": "belongsTo",
          "foreignKey": "organizationId"
        },
        "companyHiringIbfk3rel": {
          "model": "JobRole",
          "type": "belongsTo",
          "foreignKey": "jobRoleId"
        }
      }
    },
    "properties":{
      "companyAggregateId": {
          "type": "Number",
          "id":true,
          "required": false,
          "length": null,
          "precision": 10,
          "scale": 0,
          "mysql": {
            "columnName": "company_aggregate_id",
            "dataType": "int",
            "dataLength": null,
            "dataPrecision": 10,
            "dataScale": 0,
            "nullable": "Y"
          }
        },
        "companyId": {
          "type": "Number",
          "id": true,
          "length": null,
          "precision": 10,
          "scale": 0,
          "mysql": {
            "columnName": "company_id",
            "dataType": "int",
            "dataLength": null,
            "dataPrecision": 10,
            "dataScale": 0,
            "nullable": "N"
          }
        },
        "campusId": {
          "type": "Number",
          "id": true,
          "length": null,
          "precision": 10,
          "scale": 0,
          "mysql": {
            "columnName": "campus_id",
            "dataType": "int",
            "dataLength": null,
            "dataPrecision": 10,
            "dataScale": 0,
            "nullable": "N"
          }
        },
        "organizationId": {
          "type": "Number",
          "id": true,
          "length": null,
          "precision": 10,
          "scale": 0,
          "mysql": {
            "columnName": "organization_id",
            "dataType": "int",
            "dataLength": null,
            "dataPrecision": 10,
            "dataScale": 0,
            "nullable": "N"
          }
        },
        "jobRoleId": {
          "type": "Number",
          "id": true,
          "length": null,
          "precision": 10,
          "scale": 0,
          "mysql": {
            "columnName": "job_role_id",
            "dataType": "int",
            "dataLength": null,
            "dataPrecision": 10,
            "dataScale": 0,
            "nullable": "N"
          }
        },
       
        "noOfOffers": {
          "type": "Number",
          "required": false,
          "length": null,
          "precision": 5,
          "scale": 0,
          "mysql": {
            "columnName": "no_of_offers",
            "dataType": "int",
            "dataLength": null,
            "dataPrecision": 5,
            "dataScale": 0,
            "nullable": "Y"
          }
        },
        "sumOfOffers": {
          "type": "String",
          "required": false,
          "length": null,
          "precision": 18,
          "scale": 6,
          "mysql": {
            "columnName": "sum_of_offers",
            "dataType": "decimal",
            "dataLength": null,
            "dataPrecision": 18,
            "dataScale": 6,
            "nullable": "Y"
          }
        },
        "minimumOffer": {
          "type": "String",
          "required": false,
          "length": null,
          "precision": 18,
          "scale": 6,
          "mysql": {
            "columnName": "minimum_offer",
            "dataType": "decimal",
            "dataLength": null,
            "dataPrecision": 18,
            "dataScale": 6,
            "nullable": "Y"
          }
        },
        "maximumOffer": {
          "type": "String",
          "required": false,
          "length": null,
          "precision": 18,
          "scale": 6,
          "mysql": {
            "columnName": "maximum_offer",
            "dataType": "decimal",
            "dataLength": null,
            "dataPrecision": 18,
            "dataScale": 6,
            "nullable": "Y"
          }
        },
        "calendarYear": {
          "type": "Number",
          "required": false,
          "length": 4,
          "precision": null,
          "scale": null,
          "mysql": {
            "columnName": "calendar_year",
            "dataType": "int",
            "dataLength": 4,
            "dataPrecision": null,
            "dataScale": null,
            "nullable": "Y"
          }
        }
  },
  "validations": [],
  "relations": {},
  "acls": [],
  "methods": {}
  }