{
  "name": "FieldLabel",
  "options": {
    "idInjection": false,
    "mysql": {
      "schema": "devScora",
      "table": "FIELD_LABEL"
    },
    "relations": {}
  },
  "properties": {
    "fieldName": {
      "type": "String",
      "id": 1,
      "required": true,
      "length": 40,
      "precision": null,
      "scale": null,
      "mysql": {
        "columnName": "field_name",
        "dataType": "varchar",
        "dataLength": 40,
        "dataPrecision": null,
        "dataScale": null,
        "nullable": "N"
      }
    },
    "label": {
      "type": "String",
      "required": true,
      "length": 256,
      "precision": null,
      "scale": null,
      "mysql": {
        "columnName": "label",
        "dataType": "varchar",
        "dataLength": 256,
        "dataPrecision": null,
        "dataScale": null,
        "nullable": "N"
      }
    }
  },
  "validations": [],
  "relations": {},
  "acls": [],
  "methods": {}
}
