{
  "name": "ScoraServices",
  "options": {
    "idInjection": false,
    "mysql": {
      "schema": "devScora",
      "table": "SCORA_SERVICES"
    },
    "relations": {}
  },
  "properties": {
    "serviceId": {
      "type": "Number",
      "id": 1,
      "required": true,
      "length": null,
      "precision": 10,
      "scale": 0,
      "mysql": {
        "columnName": "service_id",
        "dataType": "int",
        "dataLength": null,
        "dataPrecision": 10,
        "dataScale": 0,
        "nullable": "N"
      }
    },
    "serviceName": {
      "type": "String",
      "required": true,
      "length": 200,
      "precision": null,
      "scale": null,
      "mysql": {
        "columnName": "service_name",
        "dataType": "varchar",
        "dataLength": 200,
        "dataPrecision": null,
        "dataScale": null,
        "nullable": "N"
      }
    },
    "description": {
      "type": "String",
      "required": false,
      "length": 100,
      "precision": null,
      "scale": null,
      "mysql": {
        "columnName": "description",
        "dataType": "varchar",
        "dataLength": 100,
        "dataPrecision": null,
        "dataScale": null,
        "nullable": "Y"
      }
    },
    "serviceCategory": {
      "type": "Number",
      "required": true,
      "length": null,
      "precision": 2,
      "scale": 0,
      "mysql": {
        "columnName": "service_category",
        "dataType": "int",
        "dataLength": null,
        "dataPrecision": 2,
        "dataScale": 0,
        "nullable": "N"
      }
    },
    "methodName": {
      "type": "String",
      "required": true,
      "length": 200,
      "precision": null,
      "scale": null,
      "mysql": {
        "columnName": "method_name",
        "dataType": "varchar",
        "dataLength": 200,
        "dataPrecision": null,
        "dataScale": null,
        "nullable": "N"
      }
    }
  },
  "validations": [],
  "relations": {},
  "acls": [],
  "methods": {}
}
